Scooby Doo
…
set.seed(47)

data_split <- initial_split(scooby_small, prop = 2/3)

scooby_train <- training(data_split)
scooby_test <- testing(data_split)

recipe

scooby_rec <-
  recipe(imdb ~ ., data = scooby_train) 

summary(scooby_rec)

## # A tibble: 37 x 4
##    variable       type    role      source  
##    <chr>          <chr>   <chr>     <chr>   
##  1 season         nominal predictor original
##  2 run_time       numeric predictor original
##  3 monsters_gen   nominal predictor original
##  4 monster_amount numeric predictor original
##  5 caught_fred    nominal predictor original
##  6 caught_daphnie nominal predictor original
##  7 caught_velma   nominal predictor original
##  8 caught_shaggy  nominal predictor original
##  9 caught_scooby  nominal predictor original
## 10 caught_other   logical predictor original
## #  with 27 more rows
…
set.seed(234)
scooby_folds <- bootstraps(scooby_train, strata = monster_real)
scooby_folds

## # Bootstrap sampling using stratification 
## # A tibble: 25 x 2
##    splits            id         
##    <list>            <chr>      
##  1 <split [375/133]> Bootstrap01
##  2 <split [375/144]> Bootstrap02
##  3 <split [375/140]> Bootstrap03
##  4 <split [375/132]> Bootstrap04
##  5 <split [375/139]> Bootstrap05
##  6 <split [375/134]> Bootstrap06
##  7 <split [375/146]> Bootstrap07
##  8 <split [375/132]> Bootstrap08
##  9 <split [375/143]> Bootstrap09
## 10 <split [375/143]> Bootstrap10
## #  with 15 more rows
…
## Decision Tree Model Specification (classification)
## 
## Main Arguments:
##   cost_complexity = tune()
##   tree_depth = tune()
##   min_n = tune()
## 
## Computational engine: rpart

So we set up a grid of possible values to try (using mostly the default tuning values):

tree_grid <- grid_regular(cost_complexity(), tree_depth(), min_n(), levels = 4)
tree_grid

## # A tibble: 64 x 3
##    cost_complexity tree_depth min_n
##              <dbl>      <int> <int>
##  1    0.0000000001          1     2
##  2    0.0000001             1     2
##  3    0.0001                1     2
##  4    0.1                   1     2
##  5    0.0000000001          5     2
##  6    0.0000001             5     2
##  7    0.0001                5     2
##  8    0.1                   5     2
##  9    0.0000000001         10     2
## 10    0.0000001            10     2
## #  with 54 more rows
…
set.seed(345)
tree_rs <-
  tune_grid(
    tree_spec,
    monster_real ~ year_aired + imdb,
    resamples = scooby_folds,
    grid = tree_grid,
    metrics = metric_set(accuracy, roc_auc, sensitivity, specificity)
  )

tree_rs

## # Tuning results
## # Bootstrap sampling using stratification 
## # A tibble: 25 x 4
##    splits            id          .metrics           .notes          
##    <list>            <chr>       <list>             <list>          
##  1 <split [375/133]> Bootstrap01 <tibble [256  7]> <tibble [0  1]>
##  2 <split [375/144]> Bootstrap02 <tibble [256  7]> <tibble [0  1]>
##  3 <split [375/140]> Bootstrap03 <tibble [256  7]> <tibble [0  1]>
##  4 <split [375/132]> Bootstrap04 <tibble [256  7]> <tibble [0  1]>
##  5 <split [375/139]> Bootstrap05 <tibble [256  7]> <tibble [0  1]>
##  6 <split [375/134]> Bootstrap06 <tibble [256  7]> <tibble [0  1]>
##  7 <split [375/146]> Bootstrap07 <tibble [256  7]> <tibble [0  1]>
##  8 <split [375/132]> Bootstrap08 <tibble [256  7]> <tibble [0  1]>
##  9 <split [375/143]> Bootstrap09 <tibble [256  7]> <tibble [0  1]>
## 10 <split [375/143]> Bootstrap10 <tibble [256  7]> <tibble [0  1]>
## #  with 15 more rows
…
