People and events on Leap Days
…
leap_births

# A tibble: 966 × 8
# Groups:   name, year [966]
    year sex   name        n     prop  diff diff_plus keep_sex
   <dbl> <chr> <chr>   <int>    <dbl> <int>     <int> <chr>   
 1  1880 F     Lena      603 0.00618     NA        NA F       
 2  1880 M     James    5927 0.0501    5905        NA M       
 3  1880 M     Frank    3242 0.0274    3229        NA M       
 4  1880 M     Richard   728 0.00615     NA        NA M       
 5  1880 M     Dave      131 0.00111     NA        NA M       
 6  1880 M     Pedro      31 0.000262    NA        NA M       
 7  1880 M     Antonio    26 0.000220    NA        NA M       
 8  1881 F     Lena      555 0.00561     NA        NA F       
 9  1881 M     James    5441 0.0502    5417        NA M       
10  1881 M     Frank    2834 0.0262    2825        NA M       
# ℹ 956 more rows
…
