Slave Routes
…
Census trends

Census trends over time for different regions of the country, broken down by race and status. As might be expected, in the Northeast, the number of slaves was decreasing precipitously in the second half of the nineteenth century, but in the South the number of slaves increased until the 13th amendment of the US Constitution was ratified in December of 1865.

census <- census %>%
  pivot_longer(cols = c(total, white, black, black_free, black_slaves), 
               names_to = "race", values_to = "population")

census %>% head(100)

## # A tibble: 100 x 5
##    region    division  year race         population
##    <chr>     <chr>    <dbl> <chr>             <dbl>
##  1 USA Total <NA>      1870 total          38558371
##  2 USA Total <NA>      1870 white          33589377
##  3 USA Total <NA>      1870 black           4880009
##  4 USA Total <NA>      1870 black_free      4880009
##  5 USA Total <NA>      1870 black_slaves          0
##  6 USA Total <NA>      1860 total          31443321
##  7 USA Total <NA>      1860 white          26922537
##  8 USA Total <NA>      1860 black           4441830
##  9 USA Total <NA>      1860 black_free       488070
## 10 USA Total <NA>      1860 black_slaves    3953760
## #  with 90 more rows
…
