Cats in the UK
…
The Data

The data this week comes from the Movebank for Animal Tracking Data via Data is Plural. Thanks @jthomasmock for the suggestion!

cats <- read_csv("cats_uk.csv")
cats_ref <- read_csv("cats_uk_reference.csv")

cats %>%
  group_by(tag_id) %>%
  summarize(count = n()) %>%
  arrange(desc(count))

# A tibble: 101 × 2
   tag_id              count
   <chr>               <int>
 1 Gracie_2-Tag          963
 2 Bits-Tag              867
 3 Teddy-Tag             791
 4 Ginge-Tag             445
 5 Maxwell-Tag           404
 6 Tom-Tag               360
 7 Bella-Tag             318
 8 Jago2-Tag             307
 9 Lightening Bugg-Tag   302
10 Winnie-Tag            279
# … with 91 more rows
…
