Transit Costs Project
…
transit_cost %>%
  group_by(country) %>%
  summarize(mean(real_cost))

## # A tibble: 56 x 2
##    country `mean(real_cost)`
##    <chr>               <dbl>
##  1 AE                  6637.
##  2 AR                  4646 
##  3 AT                  1352 
##  4 AU                  6238.
##  5 BD                 12352.
##  6 BE                  1170 
##  7 BG                  1016.
##  8 BH                  4882.
##  9 BR                  3665 
## 10 CA                  3283.
## #  with 46 more rows
…
