Bigfoot
…
Tokenizing Words

Using only the Class A and Class B records, we work to build a model which can distinguish between the two types of records using the observed text column.

tidy_bf <- bigfoot %>%
  drop_na(observed) %>%
  unnest_tokens(word, observed) %>%
  filter(!word %in% stop_words$word)

tidy_bf %>%
  group_by(classification) %>%
  count(word, sort = TRUE) 

# A tibble: 40,455 × 3
# Groups:   classification [2]
   classification word         n
   <chr>          <chr>    <int>
 1 Class B        heard     5397
 2 Class A        road      3472
 3 Class B        time      2555
 4 Class A        looked    2499
 5 Class B        sound     2391
 6 Class B        night     2323
 7 Class A        time      2313
 8 Class A        feet      2284
 9 Class B        woods     2239
10 Class A        creature  2232
# … with 40,445 more rows
# ℹ Use `print(n = ...)` to see more rows
…
final_fitted <- last_fit(log_wf, bf_split)

extract_workflow(final_fitted) %>% tidy()

# A tibble: 101 × 5
   term                    estimate std.error statistic   p.value
   <chr>                      <dbl>     <dbl>     <dbl>     <dbl>
 1 (Intercept)               -1.00      0.352    -2.85  0.00442  
 2 tfidf_observed_10          2.55      1.85      1.38  0.168    
 3 tfidf_observed_2          -0.408     1.47     -0.278 0.781    
 4 tfidf_observed_3           3.84      1.59      2.42  0.0156   
 5 tfidf_observed_4           3.39      1.81      1.88  0.0607   
 6 tfidf_observed_across      0.520     1.59      0.328 0.743    
 7 tfidf_observed_also        4.83      1.67      2.89  0.00388  
 8 tfidf_observed_animal     -0.992     1.25     -0.796 0.426    
 9 tfidf_observed_anything    9.52      2.23      4.26  0.0000200
10 tfidf_observed_area        2.74      1.32      2.07  0.0384   
# … with 91 more rows
# ℹ Use `print(n = ...)` to see more rows
…
