African American Achievements
…
6/9/2020

My first attempt at a TidyTuesday! Its been a very busy week, and Im working to engage in all the important events around me. Im so glad that this dataset was chosen, but unfortunately, I didnt have a lot of time to spend working on it.

Ive provided a few quick visualizations. But most importantly, Ive set up a workflow and GitHub repo & website. Im excited to work on more TidyTuesdays all summer!

Data

firsts <- readr::read_csv("firsts.csv")
science <- readr::read_csv("science.csv")

firsts

## # A tibble: 479 x 5
##     year accomplishment            person             gender     category  
##    <dbl> <chr>                     <chr>              <chr>      <chr>     
##  1  1738 First free African-Ameri Gracia Real de Sa African-A Social & 
##  2  1760 First known African-Amer Jupiter Hammon (p Female Af Arts & En
##  3  1768 First known African-Amer Wentworth Cheswel African-A Social & 
##  4  1773 First known African-Amer Phillis Wheatley  Female Af Arts & En
##  5  1773 First separate African-A Silver Bluff Bapt African-A Religion  
##  6  1775 First African-American t Prince Hall        African-A Social & 
##  7  1778 First African-American U the 1st Rhode Isl African-A Military  
##  8  1783 First African-American t James Derham, who African-A Education
##  9  1785 First African-American o Rev. Lemuel Hayne African-A Religion  
## 10  1792 First major African-Amer 3,000 Black Loyal African-A Social & 
## #  with 469 more rows

science

## # A tibble: 120 x 7
##    name   birth death occupation_s   inventions_accompl references links  
##    <chr>  <dbl> <dbl> <chr>          <chr>               <chr>      <chr>  
##  1 Amos,  1918  2003 Microbiologist First African-Amer 6,         https:
##  2 Alcor  1940    NA Physicist; in Invented a method  7,8,       https:
##  3 Andre  1930  1998 Mathematician  Put forth the Andr 9,         https:
##  4 Alexa  1888  1958 Civil engineer Responsible for th <NA>       https:
##  5 Baile  1825  1918 Inventor       Folding bed         10,        https:
##  6 Ball,  1892  1916 Chemist        Extracted chaulmoo 11,        https:
##  7 Banne  1731  1806 Almanac autho Constructed wooden 12,        https:
##  8 Banya  1947    NA Mathematician  Work on diffeomorp 13,        https:
##  9 Bashe  1957    NA Inventor; ent First African-Amer 14,        https:
## 10 Bath,  1942  2019 Ophthalmologi First African-Amer 15,16,17,  https:
## #  with 110 more rows

Firsts

firsts <- firsts %>%
  mutate(sex = ifelse(str_sub(gender, 1,6) == "Female", "female", "male"),
         century = 100*floor(year/100))

firsts

## # A tibble: 479 x 7
##     year accomplishment       person       gender   category  sex   century
##    <dbl> <chr>                <chr>        <chr>    <chr>     <chr>   <dbl>
##  1  1738 First free African- Gracia Real African Social & male     1700
##  2  1760 First known African Jupiter Ham Female  Arts & E fema    1700
##  3  1768 First known African Wentworth C African Social & male     1700
##  4  1773 First known African Phillis Whe Female  Arts & E fema    1700
##  5  1773 First separate Afri Silver Bluf African Religion  male     1700
##  6  1775 First African-Ameri Prince Hall  African Social & male     1700
##  7  1778 First African-Ameri the 1st Rho African Military  male     1700
##  8  1783 First African-Ameri James Derha African Educatio male     1700
##  9  1785 First African-Ameri Rev. Lemuel African Religion  male     1700
## 10  1792 First major African 3,000 Black African Social & male     1700
## #  with 469 more rows
…
