Big Mac Prices
…
Jo Hardin

12/22/2020

What do the data look like?

As always, a good first step is to figure out what the data set looks like. Ill read the data in and try a few summary commands. I notice that most of the countries have 33 observations, but a few of them have only 5 observations. I also notice things like France, Spain, Germany are not included. And there is a country labeled Euro area. Also, I doubt Ill use it, but it is interesting to note that both UAE and United Arab Emirates are included. A more comprehensive analysis would need to look into whether there is a political? geographical? economic? reason for the two different labels (or maybe the two labels should be combined).

bigmac <- readr::read_csv("big-mac.csv")

bigmac %>%
  group_by(name) %>%
  summarize(count = n())

## # A tibble: 57 x 2
##    name       count
##    <chr>      <int>
##  1 Argentina     33
##  2 Australia     33
##  3 Azerbaijan     5
##  4 Bahrain        5
##  5 Brazil        33
##  6 Britain       33
##  7 Canada        33
##  8 Chile         33
##  9 China         33
## 10 Colombia      28
## #  with 47 more rows
…
