US House Results
…
house |>
  group_by(party) |>
  summarize(count_party = n()) |>
  arrange(desc(count_party))

# A tibble: 478 × 2
   party            count_party
   <chr>                  <int>
 1 DEMOCRAT                9908
 2 REPUBLICAN              9705
 3 <NA>                    3858
 4 LIBERTARIAN             2769
 5 INDEPENDENT             1217
 6 CONSERVATIVE             668
 7 GREEN                    513
 8 NATURAL LAW              371
 9 WORKING FAMILIES         283
10 LIBERAL                  266
# ℹ 468 more rows
…
