Celebrating Juneteenth
…
bigrams_sep <- black_bigrams %>%
  separate(bigram, c("word1", "word2"), sep = " ")

bigrams_filtered <- bigrams_sep %>%
  dplyr::filter(!word1 %in% stop_words$word) %>%
  dplyr::filter(!word2 %in% stop_words$word)

bigram_counts <- bigrams_filtered %>%
  count(word1, word2, sort = TRUE)

bigram_counts

# A tibble: 1,870 × 4
# Groups:   subject [6]
   subject                   word1    word2         n
   <chr>                     <chr>    <chr>     <int>
 1 Black Politics            african  american     39
 2 Black Education           african  american     34
 3 African American Athletes african  american     16
 4 Art and Literature        african  american     16
 5 Black Politics            american mayor        13
 6 Racial Violence           race     riot         10
 7 Art and Literature        pulitzer prize         7
 8 Racial Violence           african  americans     7
 9 African American Athletes major    league        6
10 Black Politics            black    mayor         6
# … with 1,860 more rows
…
