Commercial Fishing
…
Now well CV the data so that we can run the random forest on different subsets of the training data.

set.seed(4747)
stock_folds <- vfold_cv(stocked_train, v = 3)

stock_grid <- grid_regular(mtry(range = c(2, 13)),
                          min_n(range = c(5, 40)),
                          levels = 5)

stock_grid

## # A tibble: 25 x 2
##     mtry min_n
##    <int> <int>
##  1     2     5
##  2     4     5
##  3     7     5
##  4    10     5
##  5    13     5
##  6     2    13
##  7     4    13
##  8     7    13
##  9    10    13
## 10    13    13
## #  with 15 more rows
…
stock_rf_final %>%
  collect_metrics()

## # A tibble: 1 x 4
##   .metric  .estimator .estimate .config             
##   <chr>    <chr>          <dbl> <chr>               
## 1 accuracy multiclass     0.809 Preprocessor1_Model1

stock_rf_final %>%
  collect_predictions() 

## # A tibble: 8,319 x 5
##    id               .pred_class  .row lake  .config             
##    <chr>            <fct>       <int> <fct> <chr>               
##  1 train/test split SU              2 SU    Preprocessor1_Model1
##  2 train/test split SU              3 SU    Preprocessor1_Model1
##  3 train/test split SU              5 SU    Preprocessor1_Model1
##  4 train/test split SU              6 SU    Preprocessor1_Model1
##  5 train/test split SU              8 SU    Preprocessor1_Model1
##  6 train/test split SU              9 MI    Preprocessor1_Model1
##  7 train/test split SU             10 MI    Preprocessor1_Model1
##  8 train/test split SU             11 SU    Preprocessor1_Model1
##  9 train/test split SU             13 SU    Preprocessor1_Model1
## 10 train/test split SU             24 MI    Preprocessor1_Model1
## #  with 8,309 more rows
…
