Grant Opportunities
…
grants |>
  group_by(agency) |>
  summarize(fund_na = sum(!is.na(estimated_funding)), fund_count = n(),
            prop_na = mean(!is.na(estimated_funding))) |>
  arrange(desc(fund_count))

# A tibble: 48 × 4
   agency fund_na fund_count prop_na
   <chr>    <int>      <int>   <dbl>
 1 HHS      11978      21349  0.561 
 2 DOI      18520      20134  0.920 
 3 DOS       3468       6192  0.560 
 4 DOD       2381       3788  0.629 
 5 USDOJ     2063       3091  0.667 
 6 USAID     1621       3062  0.529 
 7 USDA      2386       2577  0.926 
 8 DOE       1371       1548  0.886 
 9 ED        1309       1513  0.865 
10 NASA       101       1507  0.0670
# ℹ 38 more rows

grants |>
  group_by(agency) |>
  summarize(count_low_fund = sum(estimated_funding == 0, na.rm = TRUE),
            prop_low_fund = mean(estimated_funding == 0, na.rm = TRUE),
            count_fund = n(),
            count_fund_isna = sum(is.na(estimated_funding))) |>
  arrange(desc(prop_low_fund))

# A tibble: 48 × 5
   agency count_low_fund prop_low_fund count_fund count_fund_isna
   <chr>           <int>         <dbl>      <int>           <int>
 1 GDIT                2        1               3               1
 2 DOE               586        0.427        1548             177
 3 PAMS               41        0.125         361              34
 4 NSF               111        0.107        1100              63
 5 HHS               877        0.0732      21349            9371
 6 DOI               971        0.0524      20134            1614
 7 USAID              67        0.0413       3062            1441
 8 NRC                 1        0.0345         54              25
 9 DOC                14        0.0163       1238             380
10 HUD                 7        0.0156        541              93
# ℹ 38 more rows
…
