Netflix and LDA
…
Jo LDA

netflix_lda <- LDA(netflix_dtm, k = 10, control = list(seed = 4747))
netflix_lda

## A LDA_VEM topic model with 10 topics.

netflix_topics <- tidy(netflix_lda, matrix = "beta")
netflix_topics

## # A tibble: 2,580 x 3
##    topic term        beta
##    <int> <chr>      <dbl>
##  1     1 chance 0.00505  
##  2     2 chance 0.00205  
##  3     3 chance 0.00233  
##  4     4 chance 0.0000912
##  5     5 chance 0.00644  
##  6     6 chance 0.00147  
##  7     7 chance 0.000496 
##  8     8 chance 0.00527  
##  9     9 chance 0.00451  
## 10    10 chance 0.00307  
## #  with 2,570 more rows
…
collect_predictions(final_fitted) %>%
  conf_mat(type, .pred_class)

##           Truth
## Prediction Movie TV Show
##    Movie     952     256
##    TV Show   393     347

netflix_fit <- pull_workflow_fit(final_fitted$.workflow[[1]])

tidy(netflix_fit) %>%
  arrange(estimate)

## # A tibble: 1,001 x 2
##    term                         estimate
##    <chr>                           <dbl>
##  1 tfidf_description_series      -0.293 
##  2 tfidf_description_docuseries  -0.179 
##  3 tfidf_description_world       -0.126 
##  4 tfidf_description_arts        -0.0929
##  5 tfidf_description_and         -0.0906
##  6 tfidf_description_crimes      -0.0892
##  7 tfidf_description_adventures  -0.0862
##  8 tfidf_description_group       -0.0840
##  9 tfidf_description_fight       -0.0796
## 10 tfidf_description_murder      -0.0777
## #  with 991 more rows
…
